[gd_scene load_steps=2 format=3 uid="uid://b5r8w0g7qkvew"]

[ext_resource type="Script" path="res://MainUI/labeled_spin_box.gd" id="1_u34ec"]

[node name="LabeledSpinBox" type="HBoxContainer"]
script = ExtResource("1_u34ec")

[node name="Label" type="Label" parent="."]
layout_mode = 2
size_flags_horizontal = 3
text = "Label"

[node name="SpinBox" type="SpinBox" parent="."]
layout_mode = 2
max_value = 10000.0
